Library\Bee\artifacts\mvdfrm\UnityEditor.Graphs.dll_C50006E1E0A5DC25.mvfrm
Library\Bee\artifacts\mvdfrm\UnityEditor.CoreModule.dll_5E160CAC2EC404F3.mvfrm
Library\Bee\artifacts\mvdfrm\UnityEditor.DeviceSimulatorModule.dll_B3575FB34294E03E.mvfrm
Library\Bee\artifacts\mvdfrm\UnityEditor.DiagnosticsModule.dll_C90914BFF26DD30C.mvfrm
Library\Bee\artifacts\mvdfrm\UnityEditor.dll_4ED1A21361337232.mvfrm
Library\Bee\artifacts\mvdfrm\UnityEditor.GraphViewModule.dll_E1A720B34C8B0D63.mvfrm
Library\Bee\artifacts\mvdfrm\UnityEditor.PackageManagerUIModule.dll_8FD4C89AD4A5308F.mvfrm
Library\Bee\artifacts\mvdfrm\UnityEditor.QuickSearchModule.dll_541895CD4B44CF65.mvfrm
Library\Bee\artifacts\mvdfrm\UnityEditor.SceneTemplateModule.dll_927E4EFE6FA31C86.mvfrm
Library\Bee\artifacts\mvdfrm\UnityEditor.TextCoreFontEngineModule.dll_3FD6E74909F40911.mvfrm
Library\Bee\artifacts\mvdfrm\UnityEditor.TextCoreTextEngineModule.dll_87BF1DBA9977C22F.mvfrm
Library\Bee\artifacts\mvdfrm\UnityEditor.UIBuilderModule.dll_362FCDCFBF438697.mvfrm
Library\Bee\artifacts\mvdfrm\UnityEditor.UIElementsModule.dll_EE98FD6A6D69FD4F.mvfrm
Library\Bee\artifacts\mvdfrm\UnityEditor.UIElementsSamplesModule.dll_CFAB830FCA088E0E.mvfrm
Library\Bee\artifacts\mvdfrm\UnityEditor.UIServiceModule.dll_6F21DF32A87AD6B1.mvfrm
Library\Bee\artifacts\mvdfrm\UnityEditor.UnityConnectModule.dll_1623A3BAED502D29.mvfrm
Library\Bee\artifacts\mvdfrm\UnityEngine.AccessibilityModule.dll_C523BA9570194423.mvfrm
Library\Bee\artifacts\mvdfrm\UnityEngine.AIModule.dll_DF373ADB872032E7.mvfrm
Library\Bee\artifacts\mvdfrm\UnityEngine.AndroidJNIModule.dll_6CE1E63DB6896C25.mvfrm
Library\Bee\artifacts\mvdfrm\UnityEngine.AnimationModule.dll_B02C9CDC26E7E209.mvfrm
Library\Bee\artifacts\mvdfrm\UnityEngine.ARModule.dll_98A9FFDEE43D91B0.mvfrm
Library\Bee\artifacts\mvdfrm\UnityEngine.AssetBundleModule.dll_9801C8BEADAB8457.mvfrm
Library\Bee\artifacts\mvdfrm\UnityEngine.AudioModule.dll_63F893A61C3018BB.mvfrm
Library\Bee\artifacts\mvdfrm\UnityEngine.ClothModule.dll_CAE0F0A0F64CF79F.mvfrm
Library\Bee\artifacts\mvdfrm\UnityEngine.ClusterInputModule.dll_95C018D09ED7FFEF.mvfrm
Library\Bee\artifacts\mvdfrm\UnityEngine.ClusterRendererModule.dll_B9042224B24FEDC2.mvfrm
Library\Bee\artifacts\mvdfrm\UnityEngine.CoreModule.dll_8136DFFED6C9701E.mvfrm
Library\Bee\artifacts\mvdfrm\UnityEngine.CrashReportingModule.dll_E4DCCD65AB404276.mvfrm
Library\Bee\artifacts\mvdfrm\UnityEngine.DirectorModule.dll_2B74903C03DBD5BB.mvfrm
Library\Bee\artifacts\mvdfrm\UnityEngine.dll_8175E8EBBFA6FF17.mvfrm
Library\Bee\artifacts\mvdfrm\UnityEngine.DSPGraphModule.dll_30C5F1A5763CA6DC.mvfrm
Library\Bee\artifacts\mvdfrm\UnityEngine.GameCenterModule.dll_972F30587CCA5D16.mvfrm
Library\Bee\artifacts\mvdfrm\UnityEngine.GIModule.dll_777383E922CF1B01.mvfrm
Library\Bee\artifacts\mvdfrm\UnityEngine.GridModule.dll_5EA7FBECEF1E0615.mvfrm
Library\Bee\artifacts\mvdfrm\UnityEngine.HotReloadModule.dll_31755AE2021AFD8B.mvfrm
Library\Bee\artifacts\mvdfrm\UnityEngine.ImageConversionModule.dll_24F61FD53474A5B6.mvfrm
Library\Bee\artifacts\mvdfrm\UnityEngine.IMGUIModule.dll_9C58330CE261AC9C.mvfrm
Library\Bee\artifacts\mvdfrm\UnityEngine.InputLegacyModule.dll_2946E3DD459D3A48.mvfrm
Library\Bee\artifacts\mvdfrm\UnityEngine.InputModule.dll_CA6E5B5692683D5F.mvfrm
Library\Bee\artifacts\mvdfrm\UnityEngine.JSONSerializeModule.dll_253B43D16F54A4AD.mvfrm
Library\Bee\artifacts\mvdfrm\UnityEngine.LocalizationModule.dll_D40CE3233653F2E8.mvfrm
Library\Bee\artifacts\mvdfrm\UnityEngine.ParticleSystemModule.dll_37EF16B21951CE04.mvfrm
Library\Bee\artifacts\mvdfrm\UnityEngine.PerformanceReportingModule.dll_326DC0E19E3CA2DD.mvfrm
Library\Bee\artifacts\mvdfrm\UnityEngine.Physics2DModule.dll_FCD28CCCC7E4D99E.mvfrm
Library\Bee\artifacts\mvdfrm\UnityEngine.PhysicsModule.dll_58F65AAC9526F8EC.mvfrm
Library\Bee\artifacts\mvdfrm\UnityEngine.ProfilerModule.dll_5DBAC9729D355CC8.mvfrm
Library\Bee\artifacts\mvdfrm\UnityEngine.RuntimeInitializeOnLoadManagerInitializerModule.dll_544DD10020A28667.mvfrm
Library\Bee\artifacts\mvdfrm\UnityEngine.ScreenCaptureModule.dll_3F22F15683C0D10F.mvfrm
Library\Bee\artifacts\mvdfrm\UnityEngine.SharedInternalsModule.dll_A9075EAAABA2A106.mvfrm
Library\Bee\artifacts\mvdfrm\UnityEngine.SpriteMaskModule.dll_805BA2E89E39F290.mvfrm
Library\Bee\artifacts\mvdfrm\UnityEngine.SpriteShapeModule.dll_B162F619634DBC61.mvfrm
Library\Bee\artifacts\mvdfrm\UnityEngine.StreamingModule.dll_64C18A2C766F9947.mvfrm
Library\Bee\artifacts\mvdfrm\UnityEngine.SubstanceModule.dll_416C9E75C1C29755.mvfrm
Library\Bee\artifacts\mvdfrm\UnityEngine.SubsystemsModule.dll_EB09094A6C81DAA3.mvfrm
Library\Bee\artifacts\mvdfrm\UnityEngine.TerrainModule.dll_733CD61B6AE541DA.mvfrm
Library\Bee\artifacts\mvdfrm\UnityEngine.TerrainPhysicsModule.dll_3869BF853294C891.mvfrm
Library\Bee\artifacts\mvdfrm\UnityEngine.TextCoreFontEngineModule.dll_BE36629C1CF1C7DC.mvfrm
Library\Bee\artifacts\mvdfrm\UnityEngine.TextCoreTextEngineModule.dll_061E990DAC7580FA.mvfrm
Library\Bee\artifacts\mvdfrm\UnityEngine.TextRenderingModule.dll_686263613AF85104.mvfrm
Library\Bee\artifacts\mvdfrm\UnityEngine.TilemapModule.dll_12393D9C82A222E3.mvfrm
Library\Bee\artifacts\mvdfrm\UnityEngine.TLSModule.dll_BD112C5B14072EC0.mvfrm
Library\Bee\artifacts\mvdfrm\UnityEngine.UIElementsModule.dll_EF476AB26FAE169A.mvfrm
Library\Bee\artifacts\mvdfrm\UnityEngine.UIElementsNativeModule.dll_DA4E7D30461DA0B1.mvfrm
Library\Bee\artifacts\mvdfrm\UnityEngine.UIModule.dll_DAAAD908E3673893.mvfrm
Library\Bee\artifacts\mvdfrm\UnityEngine.UmbraModule.dll_DECD3FBEA956C42E.mvfrm
Library\Bee\artifacts\mvdfrm\UnityEngine.UNETModule.dll_13DD27E823D86597.mvfrm
Library\Bee\artifacts\mvdfrm\UnityEngine.UnityAnalyticsModule.dll_578E877BC5792000.mvfrm
Library\Bee\artifacts\mvdfrm\UnityEngine.UnityConnectModule.dll_038327C9E7D82DD4.mvfrm
Library\Bee\artifacts\mvdfrm\UnityEngine.UnityCurlModule.dll_E3493E0D96FBD3F6.mvfrm
Library\Bee\artifacts\mvdfrm\UnityEngine.UnityTestProtocolModule.dll_8B6E39022403E364.mvfrm
Library\Bee\artifacts\mvdfrm\UnityEngine.UnityWebRequestAssetBundleModule.dll_3311E5A6D5BB42D1.mvfrm
Library\Bee\artifacts\mvdfrm\UnityEngine.UnityWebRequestAudioModule.dll_AA6A14C024A76D75.mvfrm
Library\Bee\artifacts\mvdfrm\UnityEngine.UnityWebRequestModule.dll_3695277F3F694035.mvfrm
Library\Bee\artifacts\mvdfrm\UnityEngine.UnityWebRequestTextureModule.dll_D5144EA0226E73EA.mvfrm
Library\Bee\artifacts\mvdfrm\UnityEngine.UnityWebRequestWWWModule.dll_D0E0DE699C353D66.mvfrm
Library\Bee\artifacts\mvdfrm\UnityEngine.VehiclesModule.dll_A33789BB7E05A556.mvfrm
Library\Bee\artifacts\mvdfrm\UnityEngine.VFXModule.dll_3DEFC4C9EA74982D.mvfrm
Library\Bee\artifacts\mvdfrm\UnityEngine.VideoModule.dll_89021810DEC23460.mvfrm
Library\Bee\artifacts\mvdfrm\UnityEngine.VirtualTexturingModule.dll_FEDB319F1ECC213C.mvfrm
Library\Bee\artifacts\mvdfrm\UnityEngine.VRModule.dll_2D7CFF8E8521BE0B.mvfrm
Library\Bee\artifacts\mvdfrm\UnityEngine.WindModule.dll_F785BB2767FFEE87.mvfrm
Library\Bee\artifacts\mvdfrm\UnityEngine.XRModule.dll_603BC2930E5C0B69.mvfrm
Library\Bee\artifacts\mvdfrm\UnityEditor.WindowsStandalone.Extensions.dll_FB038792EBF496DD.mvfrm
Library\Bee\artifacts\mvdfrm\Unity.Plastic.Antlr3.Runtime.dll_3E7067DF0BAC58B2.mvfrm
Library\Bee\artifacts\mvdfrm\Unity.Plastic.Newtonsoft.Json.dll_5BEAE2763A5E1863.mvfrm
Library\Bee\artifacts\mvdfrm\Unity.VisualScripting.IonicZip.dll_E83B4FABAF689BBD.mvfrm
Library\Bee\artifacts\mvdfrm\Unity.VisualScripting.YamlDotNet.dll_93838DBA091242CF.mvfrm
Library\Bee\artifacts\mvdfrm\Unity.VisualScripting.Antlr3.Runtime.dll_44F0B49B39DB52EE.mvfrm